{
    "0": "Unknown error occurred, please provide a log to the developers.",
    "1": "Key exchange was successful, please validate the received key by talking to your sync partner. If the key is indeed correct, accept it."
}
